…
    ##   noun verb   output answer
    ## 1   62   55 19690720   6255

## Day 3 (<https://adventofcode.com/2019/day/3>)

``` r
library(tidyverse)
input <- readLines("input/3.txt") %>% 
  str_split(",") %>% 
  map_dfr( ~ tibble(stretch = seq_along(.x), dir_length = .x), .id = "wire") %>% 
  extract(dir_length, c("direction", "length"), "([RUDL])(.+)", convert = TRUE)
input
```

    ## # A tibble: 602 x 4
    ##    wire  stretch direction length
    ##    <chr>   <int> <chr>      <int>
    ##  1 1           1 R            995
    ##  2 1           2 U            671
    ##  3 1           3 R            852
    ##  4 1           4 U            741
    ##  5 1           5 R            347
    ##  6 1           6 U            539
    ##  7 1           7 R            324
    ##  8 1           8 U            865
    ##  9 1           9 R            839
    ## 10 1          10 U            885
    ## # … with 592 more rows
…
## Day 8 (<https://adventofcode.com/2019/day/8>)

``` r
library(tidyverse)
# Part 1
input = as.numeric(str_split(readLines("input/8.txt"), pattern = "")[[1]])
n_cols = 25
n_rows = 6
n_frames <- length(input) / (n_cols * n_rows)
image = expand_grid(frame = seq_len(n_frames), row = seq_len(n_rows), col = seq_len(n_cols)) %>% 
  mutate(digit = input)
image
```

    ## # A tibble: 15,000 x 4
    ##    frame   row   col digit
    ##    <int> <int> <int> <dbl>
    ##  1     1     1     1     2
    ##  2     1     1     2     2
    ##  3     1     1     3     2
    ##  4     1     1     4     2
    ##  5     1     1     5     2
    ##  6     1     1     6     2
    ##  7     1     1     7     2
    ##  8     1     1     8     2
    ##  9     1     1     9     2
    ## 10     1     1    10     2
    ## # … with 14,990 more rows
…
